Datum	Naam	Omschrijving	Factuurnummer	Open	Oorspronkelijk	Vervaldatum	Relatiecode	Plaats	Adres	Telefoon	Contactpersoon	Land	Postadres	Postcode_postadres	Plaats_postadres	Documentsoort	ID
31-12-2018	Diverse crediteuren		4362	346,85	346,85	30-1-2019	2000										
28-12-2018	Badisign		2018012	1582,61	1582,61	27-1-2019	2004										
10-12-2018	Nolte		1166170	98,53	98,53	9-1-2019	2006										
10-12-2018	Nolte		1166101	136,92	136,92	9-1-2019	2006										
10-12-2018	Nolte		1166103	70,17	70,17	9-1-2019	2006										
10-12-2018	Nolte		1168243	9,85	9,85	9-1-2019	2006										
17-12-2018	Nolte		1179159	521,52	521,52	16-1-2019	2006										
17-12-2018	Nolte		1179318	189,78	189,78	16-1-2019	2006										
17-12-2018	Nolte		1179008	112,07	112,07	16-1-2019	2006										
19-12-2018	Nolte		1184634	3562,38	3562,38	18-1-2019	2006										
19-12-2018	Nolte		1184610	4844,96	4844,96	18-1-2019	2006										
13-12-2018	Kemie		586570	1139,38	1139,38	12-1-2019	2008										
13-12-2018	Kemie		586569	1474,99	1474,99	12-1-2019	2008										
18-12-2018	Kemie		586721	4024,86	4024,86	17-1-2019	2008										
27-12-2018	Brinks		18012352	551,23	551,23	16-1-2019	2013										
14-12-2018	KPN		20180317528	138,55	138,55	4-1-2019	2017										
31-12-2018	Rouwmaat		1872218	61,59	61,59	30-1-2019	2023										
28-12-2018	RR Omgevingsbeheer		2018-935	562,65	562,65	11-1-2019	2093										
18-12-2018	De Persgroep		500088046	1784,56	1784,56	17-1-2019	2112										
27-12-2018	Gebr. Klein Gunnewiek Onroerend Goed		201902	-7750,56	-7750,56	26-1-2019	2118										
8-12-2017	Dahmus		107674	627	627	7-1-2018	2153										
11-12-2018	Dahmus		115770	627	627	10-1-2019	2153										
4-12-2018	Ronald Bussink Keukenmontage		2018206	1225,13	1225,13	3-1-2019	2161										
13-12-2018	Ronald Bussink Keukenmontage		2018212	618,31	618,31	12-1-2019	2161										
20-12-2018	Ronald Bussink Keukenmontage		2018222	353,93	353,93	19-1-2019	2161										
24-12-2018	Autobedrijf v/d Berg		20180032	907,5	907,5	23-1-2019	2181										
