"Datum"	"Naam"	"Omschrijving"	"Factuurnummer"	"Open"	"Oorspronkelijk"	"Vervaldatum"	"Relatiecode"	"Plaats"	"Adres"	"Telefoon"	"Contactpersoon"	"Land"	"Postadres"	"Postcode postadres"	"Plaats postadres"	"Documentsoort"	"ID"
"20-12-2018"	"Div. crediteuren"	"19"	"019 Div. crediteuren"	"222,22"	""	"19-01-2019"	""	""	""	""	""	"Nederland"	""	""	""	"Inkoopfactuur"	"000.975"
"15-12-2018"	"Event Creation"	"20180068"	"20180068 Event Creation"	"884,77"	""	"29-12-2018"	""	""	""	""	""	"Nederland"	""	""	""	"Inkoopfactuur"	"000.973"
"19-12-2018"	"Fender Advocaten"	"20180928"	"20180928 Fender Advocaten"	"278,71"	""	"18-01-2019"	""	"Eindhoven"	"Begijnhof 4-6"	""	""	"Nederland"	""	""	""	"Inkoopfactuur"	"000.974"
"28-12-2018"	"Leeuwenkamp & van der Velden"	"406432"	"406432 Leeuwenkamp & Van Der Velden"	"230,23"	""	"27-01-2019"	""	"Eindhoven"	"Bilderdijklaan 15"	""	""	"Nederland"	""	""	""	"Inkoopfactuur"	"000.977"
"28-12-2018"	"American Express"	"BHZW7U_1550170"	"BHZW7U_1550170 American Express"	"10.761,50"	""	"27-01-2019"	""	""	""	""	""	"Nederland"	""	""	""	"Inkoopfactuur"	"000.976"
""	""	"Saldo"	""	"12.377,43"	""	""	""	""	""	""	""	""	""	""	""	""	""
