Datum	Naam	Omschrijving	Factuurnummer	Open	Oorspronkelijk	Vervaldatum	Relatiecode	Plaats	Adres	Telefoon	Contactpersoon	Land	Postadres	Postcode_postadres	Plaats_postadres	Documentsoort	ID
2-11-2018	Activin B.V.		419197	3.706,86		2-11-2018	5005151										
30-11-2018	Activin B.V.		419452	4.878,90		30-11-2018	5005151										
23-11-2018	Activin B.V.		419382	2.807,40		23-11-2018	5005151										
7-12-2018	Ag. Handlowa Maw Mariusz Wolkiewicz		419529	-84		7-12-2018	5005035										
7-12-2018	Ag. Handlowa Maw Mariusz Wolkiewicz		419528	3.022,86		7-12-2018	5005035										
2-11-2018	Alwijn Slijterij Wijnerij		419205	46,75		2-11-2018	8000178										
2-3-2018	Alwijn Slijterij Wijnerij		3180047	-117,07		2-3-2018	8000178										
21-12-2018	Alwijn Slijterij Wijnerij		419772	2.721,12		21-12-2018	8000178										
2-11-2018	Alwijn Slijterij Wijnerij		419204	2.571,71		2-11-2018	8000178										
2-11-2018	Alwijn Slijterij Wijnerij		3180181	-118,12		2-11-2018	8000178										
9-11-2018	Alwijn Slijterij Wijnerij		3180184	169,16		9-11-2018	8000178										
21-12-2018	Alwijn Slijterij Wijnerij		419773	1.219,83		21-12-2018	8000178										
7-12-2018	Alwijn Slijterij Wijnerij		419535	1.031,57		7-12-2018	8000178										
2-11-2018	Alwijn Slijterij Wijnerij		419207	90,31		2-11-2018	8000178										
21-12-2018	Alwijn Slijterij Wijnerij		419774	28,92		21-12-2018	8000178										
21-12-2018	Alwijn Slijterij Wijnerij		3180214	-213,28		21-12-2018	8000178										
14-12-2018	Andries Wijnen		419645	2.344,40		14-12-2018	8000427										
21-12-2018	Arno De Laak		419771	1.310,94		21-12-2018	8005022										
21-12-2018	Arno De Laak		419731	1.614,44		21-12-2018	8005022										
28-12-2018	Arno De Laak		419820	6.353,69		28-12-2018	8005022										
28-12-2018	Arno De Laak		419812	3.302,72		28-12-2018	8005022										
7-12-2018	Arrebol Wijn		419553	1.006,62		7-12-2018	8000420										
21-12-2018	B&F Palace Mr. Porter		419791	149,63		21-12-2018	4004563										
30-11-2018	B&F Palace Mr. Porter		419500	430,06		30-11-2018	4004563										
14-12-2018	B&F Palace Mr. Porter		419679	251,63		14-12-2018	4004563										
7-12-2018	B&F Palace Mr. Porter		419582	251,63		7-12-2018	4004563										
21-12-2018	B&F Palace Mr. Porter		419792	251,63		21-12-2018	4004563										
7-12-2018	B&F Palace Mr. Porter		419576	251,63		7-12-2018	4004563										
7-12-2018	B&F Palace Mr. Porter		419581	149,63		7-12-2018	4004563										
28-12-2018	B&F Palace Mr. Porter		419856	849,87		28-12-2018	4004563										
28-12-2018	B&F Palace Mr. Porter		419857	290,11		28-12-2018	4004563										
14-12-2018	B&F Palace Mr. Porter		419678	350,74		14-12-2018	4004563										
7-12-2018	B&F Palace Mr. Porter		419575	139,17		7-12-2018	4004563										
30-11-2018	B&F Palace Mr. Porter		419501	38,48		30-11-2018	4004563										
7-12-2018	B&F Palace The Duchess		419580	574,01		7-12-2018	4004564										
16-11-2018	B&F Palace The Duchess		419360	319,51		16-11-2018	4004564										
7-12-2018	B&F Palace The Duchess		419577	511,29		7-12-2018	4004564										
16-11-2018	B&F Palace The Duchess		419356	952,98		16-11-2018	4004564										
28-12-2018	B&F Palace The Duchess		419853	319,51		28-12-2018	4004564										
21-12-2018	B&F Palace The Duchess		419795	408,05		21-12-2018	4004564										
23-3-2018	B&F Palace The Duchess		417286	826,55		23-3-2018	4004564										
30-11-2018	B&F Palace The Duchess		419502	177,19		30-11-2018	4004564										
23-11-2018	Bakker Transport Tilburg Bv		419381	23,6		23-11-2018	3005205										
14-12-2018	Beukers Delicatessen		419617	1.214,45		14-12-2018	8000275										
21-12-2018	Boon Foodgroup B.V.		419789	1.047,18		21-12-2018	8020001										
14-12-2018	Boon Foodgroup B.V.		419674	3.746,16		14-12-2018	8020001										
31-12-2018	Boon Foodgroup B.V.		3180217	-48,93		31-12-2018	8020001										
30-11-2018	Boon Foodgroup B.V.		3180199	-18,59		30-11-2018	8020001										
7-12-2018	Boon Foodgroup B.V.		419571	4.059,36		7-12-2018	8020001										
31-10-2018	Bossche Wijnkopers		419178	1.038,98		31-10-2018	8000215										
21-12-2018	Bossche Wijnkopers		419748	920,28		21-12-2018	8000215										
14-12-2018	De Barossa		3180208	-114,79		14-12-2018	8000402										
23-11-2018	De Barossa		419401	1.691,24		23-11-2018	8000402										
14-12-2018	De Barossa		419660	1.434,87		14-12-2018	8000402										
21-12-2018	De Barossa		419760	728,47		21-12-2018	8000402										
21-12-2018	De Fransoos		419722	184,89		21-12-2018	8000305										
21-12-2018	De Fransoos		419721	130,97		21-12-2018	8000305										
21-12-2018	De Fransoos		3180215	-190,49		21-12-2018	8000305										
21-12-2018	De Fransoos		419720	2.852,24		21-12-2018	8000305										
21-12-2018	De Fransoos		419753	553,53		21-12-2018	8000305										
7-12-2018	De Heerlyckheid B.V.B.A		419505	7.933,68		7-12-2018	3005218										
3-8-2018	De Heerlyckheid B.V.B.A		418478	851,28		3-8-2018	3005218										
30-11-2018	De Heerlyckheid B.V.B.A		419446	1.022,64		30-11-2018	3005218										
28-12-2018	De Heerlyckheid B.V.B.A		419797	2.401,76		28-12-2018	3005218										
21-12-2018	De Heerlyckheid B.V.B.A		419692	2.976,48		21-12-2018	3005218										
5-6-2018	De Heerlyckheid B.V.B.A		417984	-5,7		5-6-2018	3005218										
3-7-2018	De Heerlyckheid B.V.B.A		418231	-84,84		3-7-2018	3005218										
30-11-2018	De Heerlyckheid B.V.B.A		419445	5.666,76		30-11-2018	3005218										
14-12-2018	De Heerlyckheid B.V.B.A		419594	5.472,88		14-12-2018	3005218										
3-8-2018	De Heerlyckheid B.V.B.A		418477	3.680,84		3-8-2018	3005218										
28-12-2018	De Heerlyckheid B.V.B.A		419798	905,04		28-12-2018	3005218										
14-12-2018	De Heerlyckheid B.V.B.A		419595	2.204,46		14-12-2018	3005218										
7-12-2018	De Heerlyckheid B.V.B.A		419506	5.380,92		7-12-2018	3005218										
21-12-2018	De Heerlyckheid B.V.B.A		419693	1.269,00		21-12-2018	3005218										
21-12-2018	De Hoogheerlijkheid		419757	1.580,19		21-12-2018	8002027										
31-12-2018	De Meybree		419863	2.392,96		31-12-2018	8005000										
21-12-2018	De Meybree		419754	1.340,89		21-12-2018	8005000										
14-12-2018	De Meybree		419650	2.545,69		14-12-2018	8005000										
6-4-2018	De Meybree		417440	48,4		6-4-2018	8005000										
7-12-2018	De Meybree		419558	26,6		7-12-2018	8005000										
28-12-2018	De Meybree		419650	-2.515,69		28-12-2018	8005000										
7-12-2018	Detailresultaat Logistiek B.V.		419572	4.447,77		7-12-2018	8040001										
21-12-2018	Drankenhandel Mulco B.V.		419750	497,16		21-12-2018	8005050										
21-12-2018	Drankenhandel Mulco B.V.		419726	275,18		21-12-2018	8005050										
21-12-2018	Drankenhandel Mulco B.V.		419727	2.734,41		21-12-2018	8005050										
30-11-2018	Drankenhandel Mulco B.V.		419458	825,55		30-11-2018	8005050										
9-11-2018	Drankenspeciaalzaak van de Cappelle		419249	167,27		9-11-2018	8000429										
9-11-2018	Drankenspeciaalzaak van de Cappelle		419248	1.145,77		9-11-2018	8000429										
17-8-2018	Dranknet B.V.		418590	700,62		17-8-2018	8000400										
31-8-2018	Dranknet B.V.		417780	-273		31-8-2018	8000400										
29-6-2018	Dranknet B.V.		418208	953,6		29-6-2018	8000400										
17-8-2018	Dranknet B.V.		418590	7.982,86		17-8-2018	8000400										
17-8-2018	Dranknet B.V.		418590	500		17-8-2018	8000400										
19-9-2018	Dranknet B.V.		417966	-1.512,86		19-9-2018	8000400										
1-6-2018	Dranknet B.V.		417966	3.966,91		1-6-2018	8000400										
1-9-2018	Dranknet B.V.		417780	-942,99		1-9-2018	8000400										
8-6-2018	Dranknet B.V.		418027	2.020,46		8-6-2018	8000400										
7-12-2018	Dranknet B.V.		417966	-500		7-12-2018	8000400										
11-5-2018	Dranknet B.V.		417780	942,99		11-5-2018	8000400										
15-6-2018	Dranknet B.V.		418087	-257,73		15-6-2018	8000400										
30-11-2018	Dranknet B.V.		15182372	-500		30-11-2018	8000400										
10-8-2018	Dranknet B.V.		418538	1.629,60		10-8-2018	8000400										
24-9-2018	Dranknet B.V.		418027	-507,6		24-9-2018	8000400										
20-7-2018	Dranknet B.V.		418395	1.180,19		20-7-2018	8000400										
21-9-2018	Dranknet B.V.		418842	731,37		21-9-2018	8000400										
14-12-2018	Fooddrome B.V.		419649	1.831,88		14-12-2018	8005009										
21-12-2018	Fooddrome B.V.		419740	54,1		21-12-2018	8005009										
30-11-2018	Fooddrome B.V.		419484	2.912,94		30-11-2018	8005009										
21-12-2018	Fooddrome B.V.		419739	1.274,53		21-12-2018	8005009										
28-12-2018	Grandcruwijnen.Nl Vof		419811	1.642,04		28-12-2018	8000371										
30-11-2018	Grandcruwijnen.Nl Vof		419469	721,86		30-11-2018	8000371										
30-11-2018	Grandcruwijnen.Nl Vof		419470	126,03		30-11-2018	8000371										
31-12-2018	Henri Bloem Eindhoven		3180226	233,49		21-1-2019	3001002										
21-12-2018	Het Deventer Wijnhuis		419724	2.957,01		21-12-2018	8005014										
21-12-2018	Het Deventer Wijnhuis		419768	1.528,67		21-12-2018	8005014										
28-12-2018	Het Deventer Wijnhuis		419842	-105,86		28-12-2018	8005014										
21-12-2018	Het Deventer Wijnhuis		419725	458,81		21-12-2018	8005014										
21-12-2018	Italvin B.V.		419765	1.167,05		21-12-2018	8000401										
21-12-2018	Italvin B.V.		419766	-13,3		21-12-2018	8000401										
28-12-2018	Italvin B.V.		419841	-41,89		28-12-2018	8000401										
21-12-2018	Italvin B.V.		419764	1.941,14		21-12-2018	8000401										
21-7-2017	Jean Arnaud Beheer B.V.		2001600	10.141,64		21-7-2017	5000036										
14-12-2018	Joh. Mets		419607	1.234,24		14-12-2018	8005021										
14-12-2018	Joh. Mets		419636	33,81		14-12-2018	8005021										
14-12-2018	Joh. Mets		419608	473,47		14-12-2018	8005021										
17-8-2018	Joh. Mets		3180146	-1,82		17-8-2018	8005021										
21-12-2018	Kaashuis Dorestad		419735	932,69		21-12-2018	8000406										
21-12-2018	Kaashuis Dorestad		419736	218,82		21-12-2018	8000406										
21-12-2018	Landwinkel Cooperatie B.A.		419758	366,99		21-12-2018	8003100										
21-12-2018	Landwinkel Cooperatie B.A.		419723	1.174,38		21-12-2018	8003100										
14-12-2018	Landwinkel Cooperatie B.A.		419626	782,92		14-12-2018	8003100										
22-3-2018	Le Grand Cru		416327	-117,07		22-3-2018	8000059										
21-12-2018	Le Grand Cru		419777	1.255,54		21-12-2018	8000059										
30-4-2018	Le Grand Cru		416327	-706,71		30-4-2018	8000059										
7-12-2018	Le Grand Cru		3180202	-15,09		7-12-2018	8000059										
19-12-2017	Le Grand Cru		416327	1.585,58		19-12-2017	8000059										
14-12-2018	Le Grand Cru		419630	2.159,56		14-12-2018	8000059										
7-12-2018	Le Grand Cru		419532	188,61		7-12-2018	8000059										
7-12-2018	Le Grand Cru		419533	8.184,40		7-12-2018	8000059										
21-12-2018	Le Grand Cru		419776	43,92		21-12-2018	8000059										
16-11-2018	Le Grand Cru		419299	522,28		16-11-2018	8000059										
9-4-2018	Le Grand Cru		416327	-500		9-4-2018	8000059										
2-11-2018	Le Grand Cru		419208	1.146,55		2-11-2018	8000059										
14-12-2018	Le Grand Cru		419629	219,62		14-12-2018	8000059										
31-12-2018	Les Caves Philopierre Wijnkoperij		419866	2.306,19		31-12-2018	8005013										
31-12-2018	Les Caves Philopierre Wijnkoperij		419869	233,48		31-12-2018	8005013										
23-11-2018	Library Of Spirits		419413	2.761,52		23-11-2018	8000409										
16-11-2018	Library Of Spirits		419342	1.338,16		16-11-2018	8000409										
28-12-2018	Lommerse		419831	773,61		28-12-2018	8005023										
21-12-2018	Lommerse		419775	1.914,74		21-12-2018	8005023										
28-12-2018	Lommerse		419830	2.298,37		28-12-2018	8005023										
28-12-2018	Lommerse		3180212	-61,89		28-12-2018	8005023										
30-11-2018	Maison D'Elfant		419471	116,5		30-11-2018	8000407										
31-12-2018	Maison D'Elfant		3180222	-116,47		21-1-2019	8000407										
30-11-2018	Maison D'Elfant		419480	105,85		30-11-2018	8000407										
21-12-2018	Maison D'Elfant		419741	1.670,26		21-12-2018	8000407										
31-12-2018	Maison D'Elfant		3180222	-116,47		21-1-2019	8000407										
30-11-2018	Maison D'Elfant		419471	2.487,76		30-11-2018	8000407										
31-12-2018	Maison Du Vin		3180210	-121,36		31-12-2018	8000367										
31-12-2018	Maison Du Vin		419867	2.912,74		31-12-2018	8000367										
31-12-2018	Maison Du Vin		3180223	2.943,05		17-1-2019	8000367										
31-12-2018	Maison Du Vin		3180220	-1.983,72		31-12-2018	8000367										
31-12-2018	Maison Du Vin		419865	3.305,15		31-12-2018	8000367										
31-12-2018	Maison Du Vin		419868	-233,48		31-12-2018	8000367										
31-12-2018	Maison Du Vin		3180223	2.943,05		17-1-2019	8000367										
15-6-2018	Maison Florop B.V.		418068	6.151,20		15-6-2018	8005015										
1-11-2018	Maison Florop B.V.		15182161	-500		1-11-2018	8005015										
27-7-2018	Maison Florop B.V.		418437	239,58		27-7-2018	8005015										
1-6-2018	Maison Florop B.V.		417962	1.410,98		1-6-2018	8005015										
30-10-2018	Maison Florop B.V.		15182140	-3.264,63		30-10-2018	8005015										
27-7-2018	Maison Florop B.V.		418436	3.462,87		27-7-2018	8005015										
21-12-2018	Nan Wijn En Relatiegeschenken		419752	152,02		21-12-2018	8005003										
21-12-2018	Nan Wijn En Relatiegeschenken		419751	1.477,39		21-12-2018	8005003										
28-12-2018	Nan Wijn En Relatiegeschenken		419827	1.214,48		28-12-2018	8005003										
21-12-2018	Nan Wijn En Relatiegeschenken		419767	337,02		21-12-2018	8005003										
28-12-2018	Nan Wijn En Relatiegeschenken		419823	996		28-12-2018	8005003										
28-12-2018	Nan Wijn En Relatiegeschenken		419816	4.228,54		28-12-2018	8005003										
21-12-2018	Oinotria BV (Niet gebruiken/Vervallen)		419779	-24,1		21-12-2018	8005008										
21-12-2018	Oinotria BV (Niet gebruiken/Vervallen)		419730	2.400,45		21-12-2018	8005008										
28-12-2018	Oinotria BV (Niet gebruiken/Vervallen)		419813	1.459,43		28-12-2018	8005008										
28-12-2018	Oinotria BV (Niet gebruiken/Vervallen)		419817	477,79		28-12-2018	8005008										
28-12-2018	Philipsen Specialiteiten		419835	98,58		28-12-2018	8005004										
31-12-2018	Plus Retail B.V.		3180218	-8.442,16		31-12-2018	8010005										
14-12-2018	Plus Retail B.V.		419673	492,23		14-12-2018	8010006										
31-12-2018	Plus Retail B.V. - Beemster		419871	8.721,44		31-12-2018	8010003										
16-11-2018	Plus Retail B.V. - Beemster		419352	4.827,46		16-11-2018	8010003										
21-12-2018	Plus Retail B.V. - Beemster		419788	27.902,21		21-12-2018	8010003										
14-12-2018	Plus Retail B.V. - Beemster		419669	7.763,55		14-12-2018	8010003										
30-11-2018	Plus Retail B.V. - Beemster		419498	17.539,58		30-11-2018	8010003										
30-11-2018	Plus Retail B.V. - Beemster		419497	5.968,88		30-11-2018	8010003										
16-11-2018	Plus Retail B.V. - Beemster		419349	14.142,04		16-11-2018	8010003										
31-12-2018	Plus Retail B.V. - Beemster		3180216	-195,15		31-12-2018	8010003										
28-12-2018	Plus Retail B.V. - Beemster		419845	7.792,45		28-12-2018	8010003										
14-12-2018	Plus Retail B.V. - Beemster		419672	12.531,05		14-12-2018	8010003										
28-12-2018	Plus Retail B.V. - Beemster		419848	2.326,83		28-12-2018	8010003										
21-12-2018	Plus Retail B.V. - Beemster		419784	17.126,12		21-12-2018	8010003										
16-11-2018	Plus Retail B.V. - Oost		419348	7.105,73		16-11-2018	8010001										
28-12-2018	Plus Retail B.V. - Oost		419844	8.502,91		28-12-2018	8010001										
21-12-2018	Plus Retail B.V. - Oost		419785	4.437,68		21-12-2018	8010001										
14-12-2018	Plus Retail B.V. - Oost		419668	5.690,03		14-12-2018	8010001										
30-11-2018	Plus Retail B.V. - Oost		419496	5.785,35		30-11-2018	8010001										
28-12-2018	Plus Retail B.V. - West		419843	1.944,95		28-12-2018	8010004										
31-12-2018	Plus Retail B.V. - West		419870	1.944,95		31-12-2018	8010004										
16-11-2018	Plus Retail B.V. - West		419347	1.896,68		16-11-2018	8010004										
14-12-2018	Plus Retail B.V. - West		419667	1.896,68		14-12-2018	8010004										
21-12-2018	Plus Retail B.V. - West		419783	3.793,35		21-12-2018	8010004										
16-11-2018	Plus Retail B.V. - West		419350	5.063,85		16-11-2018	8010004										
28-12-2018	Plus Retail B.V. - West		419847	7.779,82		28-12-2018	8010004										
30-11-2018	Plus Retail B.V. - West		419494	14.998,07		30-11-2018	8010004										
30-11-2018	Plus Retail B.V. - West		419495	3.167,18		30-11-2018	8010004										
21-12-2018	Plus Retail B.V. - West		419786	5.735,40		21-12-2018	8010004										
14-12-2018	Plus Retail B.V. - West		419670	10.899,08		14-12-2018	8010004										
21-12-2018	Plus Retail B.V. - Zuid		419787	4.922,28		21-12-2018	8010002										
14-12-2018	Plus Retail B.V. - Zuid		419671	8.231,03		14-12-2018	8010002										
30-11-2018	Plus Retail B.V. - Zuid		419493	7.777,35		30-11-2018	8010002										
28-12-2018	Plus Retail B.V. - Zuid		419846	3.889,91		28-12-2018	8010002										
16-11-2018	Plus Retail B.V. - Zuid		419351	4.437,68		16-11-2018	8010002										
14-12-2018	Plus Scharendijke		419610	2.331,89		14-12-2018	8002046										
14-12-2018	Plus Scharendijke		3180206	-159,28		14-12-2018	8002046										
14-12-2018	Plus Scharendijke		419611	467,18		14-12-2018	8002046										
14-12-2018	Plus Scharendijke		419637	309,28		14-12-2018	8002046										
22-12-2017	Proost & Salut = Library of Spirits (8000409)		3180008	-75,27		22-12-2017	8000330										
21-8-2018	Restaurant De Watermolen		418629	110,72		21-8-2018	8000415										
21-8-2018	Restaurant De Watermolen		418628	269,78		21-8-2018	8000415										
21-8-2018	Restaurant De Watermolen		418627	490,78		21-8-2018	8000415										
14-12-2018	Restaurant Momo / Parkhotel		419677	558,98		14-12-2018	4004565										
3-8-2018	Restaurant Momo / Parkhotel		418512	133,95		3-8-2018	4004565										
28-12-2018	Restaurant Momo / Parkhotel		419854	787,35		28-12-2018	4004565										
7-12-2018	Restaurant Momo / Parkhotel		419574	641,64		7-12-2018	4004565										
7-12-2018	Restaurant Momo / Parkhotel		419579	-11,87		7-12-2018	4004565										
21-12-2018	Restaurant Momo / Parkhotel		419793	1.446,16		21-12-2018	4004565										
21-12-2018	Rwr Winetrading Bv (Cave Michel)		419742	940,91		21-12-2018	8005012										
28-12-2018	Rwr Winetrading Bv (Cave Michel)		419840	-24,31		28-12-2018	8005012										
28-12-2018	Rwr Winetrading Bv (Cave Michel)		419839	-571,34		28-12-2018	8005012										
31-12-2018	Schuttelaar Blijmarkt		419862	121,23		31-12-2018	8005005										
31-12-2018	Schuttelaar Blijmarkt		419861	786,09		31-12-2018	8005005										
31-12-2018	Schuttelaar Blijmarkt		419864	60,61		31-12-2018	8005005										
21-12-2018	Schuttelaar Blijmarkt		419743	4.443,66		21-12-2018	8005005										
14-12-2018	Sir Albert Hotel Bv/Izakaya		419680	502,79		14-12-2018	4004569										
28-12-2018	Sir Albert Hotel Bv/Izakaya		419851	890,58		28-12-2018	4004569										
28-12-2018	Sir Albert Hotel Bv/Izakaya		419852	78,41		28-12-2018	4004569										
21-12-2018	Sir Albert Hotel Bv/Izakaya		419794	1.357,44		21-12-2018	4004569										
7-12-2018	Sir Albert Hotel Bv/Izakaya		419578	-12,09		7-12-2018	4004569										
7-12-2018	Sir Albert Hotel Bv/Izakaya		419573	319,51		7-12-2018	4004569										
28-12-2018	Sir Albert Hotel Bv/Izakaya		419855	929,13		28-12-2018	4004569										
21-12-2018	Sir Albert Hotel Bv/Izakaya		419796	117,61		21-12-2018	4004569										
28-12-2018	Smeele Delicatessen		419810	1.411,71		28-12-2018	8002014										
28-12-2018	Smeele Delicatessen		419824	294,09		28-12-2018	8002014										
14-12-2018	Spar Holding B.V.		419675	2.924,84		14-12-2018	8030003										
30-11-2018	Spar Holding B.V.		419499	3.098,50		30-11-2018	8030003										
28-12-2018	Spar Holding B.V.		419849	298,02		28-12-2018	8030003										
21-12-2018	Spar Holding B.V.		419790	590,24		21-12-2018	8030003										
28-11-2018	The Wine Merchant		417554	-361,19		28-11-2018	8000317										
20-4-2018	The Wine Merchant		417554	1.061,19		20-4-2018	8000317										
18-12-2018	The Wine Merchant		417554	-400		18-12-2018	8000317										
31-12-2018	Unique Holland Wijnimport B.V.		3180226	233,49		30-1-2019	3001000										
31-12-2018	Unique Holland Wijnimport B.V.		3180225	130,84		30-1-2019	3001000										
28-12-2018	Van Berkum Wijnkopers		15182552	-2.017,08		28-12-2018	8005010										
28-12-2018	Van Berkum Wijnkopers		15182551	-5.461,21		28-12-2018	8005010										
21-12-2018	Van Leersum Dranken B.V.		419745	248,51		21-12-2018	8000274										
28-12-2018	Van Leersum Dranken B.V.		419818	538,92		28-12-2018	8000274										
14-12-2018	Van Leersum Dranken B.V.		419609	728,9		14-12-2018	8000274										
14-12-2018	VB Vers		3180204	-115,79		14-12-2018	8000880										
28-12-2018	VB Vers		419822	267,53		28-12-2018	8000880										
21-12-2018	VB Vers		419737	695,65		21-12-2018	8000880										
28-12-2018	VB Vers		419837	71,51		28-12-2018	8000880										
28-12-2018	Vinius V.O.F.		419836	-6,18		28-12-2018	8000368										
21-12-2018	Vinius V.O.F.		419747	469,36		21-12-2018	8000368										
21-12-2018	Vinius V.O.F.		3180209	-142,73		21-12-2018	8000368										
21-12-2018	Vinius V.O.F.		419761	33,84		21-12-2018	8000368										
28-12-2018	Vinius V.O.F.		3180211	-123,05		28-12-2018	8000368										
28-12-2018	Vinius V.O.F.		419826	74,34		28-12-2018	8000368										
21-12-2018	Vinius V.O.F.		419780	-290,4		21-12-2018	8000368										
21-12-2018	Vinius V.O.F.		419746	6.385,15		21-12-2018	8000368										
21-12-2018	Vinius V.O.F.		419759	-125,67		21-12-2018	8000368										
21-12-2018	Vinius V.O.F.		419778	2.524,31		21-12-2018	8000368										
28-12-2018	Vinius V.O.F.		419825	2.810,64		28-12-2018	8000368										
14-12-2018	Vinius V.O.F.		3180207	-253,38		14-12-2018	8000368										
13-7-2018	Vino I Mas		418330	897,34		13-7-2018	8000341										
31-12-2018	Vinogroep Nederland		3180224	120,78		30-1-2019	8000246										
28-12-2018	Vintake C.V.		1902516	-104,7		28-12-2018	8000283										
10-8-2018	Vinumworld Bv (spanjewijn)		418550	1.337,29		10-8-2018	8000365										
14-12-2018	Vomar Voordeelmarkt		419676	2.408,87		14-12-2018	8050002										
28-12-2018	Vomar Voordeelmarkt		419850	2.408,87		28-12-2018	8050002										
31-12-2018	Wereldse Wijn Bv		15182561	-1.180,04		31-12-2018	8000196										
28-12-2018	Wijn van ons		419815	647,96		28-12-2018	8000428										
21-12-2018	Wijn van ons		419719	1.380,05		21-12-2018	8000428										
21-12-2018	Wijnhandel Van Helden		419728	1.243,11		21-12-2018	8000351										
30-11-2018	Wijnhandel Van Helden		3180198	-119,89		30-11-2018	8000351										
30-11-2018	Wijnhandel Van Helden		419454	1.852,17		30-11-2018	8000351										
30-11-2018	Wijnhandel Van Helden		419456	1.145,19		30-11-2018	8000351										
7-12-2018	Wijnhandel Van Welie		419544	1.210,17		7-12-2018	8000208										
21-12-2018	Wijnhandel Van Welie		3180213	-147,87		21-12-2018	8000208										
21-12-2018	Wijnhandel Van Welie		419733	1.848,40		21-12-2018	8000208										
30-11-2018	Wijnhandel Van Welie		419475	2.556,10		30-11-2018	8000208										
14-12-2018	Wijnhuis Helmond		419615	1.665,44		14-12-2018	8000411										
14-12-2018	Wijnhuis.Amsterdam		419613	263,83		14-12-2018	8000433										
28-12-2018	Wijnhuis.Amsterdam (DUBBEL - zie 8000433)		419828	598,08		28-12-2018	8000435										
28-12-2018	Wijnhuis.Amsterdam (DUBBEL - zie 8000433)		419829	1.409,31		28-12-2018	8000435										
14-12-2018	Wijnkoperij Wesseling		419606	558,29		14-12-2018	8000290										
14-12-2018	Wijnkoperij Wesseling		419631	6.662,94		14-12-2018	8000290										
14-12-2018	Wijnkoperij Wesseling		3180203	-322,29		14-12-2018	8000290										
26-10-2018	Wine Inspiration		419131	2.136,01		26-10-2018	8000269										
14-12-2018	Wine Inspiration		419634	1.374,40		14-12-2018	8000269										
23-11-2018	Wine Inspiration		419403	1.084,47		23-11-2018	8000269										
31-12-2018	Wine Inspiration		419860	1.448,29		31-12-2018	8000269										
14-12-2018	Wines & Whiskies		419641	1.739,34		14-12-2018	8000033										
21-12-2018	Zwagers Wijnimport		419738	1.976,17		21-12-2018	8000426										
